{
    "produces": [
        "application/json; charset=utf-8"
    ],
    "responses": {
        "200": {
            "description": "OK",
            "headers": {
                "Content-Type": {
                    "type": "string"
                },
                "Access-Control-Allow-Headers": {
                    "type": "string"
                },
                "Access-Control-Allow-Methods": {
                    "type": "string"
                },
                "Access-Control-Allow-Origin": {
                    "type": "string"
                }
            }
        },
        "default": {
            "description": "Error Response",
            "headers": {
                "Content-Type": {
                    "type": "string"
                },
                "Access-Control-Allow-Headers": {
                    "type": "string"
                },
                "Access-Control-Allow-Methods": {
                    "type": "string"
                },
                "Access-Control-Allow-Origin": {
                    "type": "string"
                }
            }
        }
    }
}